vivado_projekty/tor_wizyjny - Copy/.Xil/Vivado-18792-N-5CD6281M34/hw_ila_data_1/zip_work/waveform.vcd
$date
        2019-May-01 03:03:32
$end
$version
        Vivado v2018.2 (64-bit)
$end
$timescale
        1ps
$end
$scope module dut $end
$var reg 8 " design_1_i/system_ila_0/inst/probe0_1 [7:0] $end
$var reg 8 * design_1_i/system_ila_0/inst/probe1_1 [7:0] $end
$var reg 8 2 design_1_i/system_ila_0/inst/probe2_1 [7:0] $end
$var reg 12 : design_1_i/system_ila_0/inst/probe3_1 [11:0] $end
$var reg 11 F design_1_i/system_ila_0/inst/probe4_1 [10:0] $end
$var reg 1 Q design_1_i/system_ila_0/inst/probe5_1 $end
$var reg 1 R _TRIGGER $end
$var reg 1 S _WINDOW $end
$var reg 1 T _GAP $end
$upscope $end
$enddefinitions $end
#0
$dumpvars
b0 "
b0 *
b0 2
b10110010 :
b111101010 F
0Q
0R
1S
0T
$end
#1
b10110011 :
#2
b10110100 :
#3
b10110101 :
#4
b10110110 :
#5
b10110111 :
#6
b10111000 :
#7
b10111001 :
#8
b10111010 :
#9
b10111011 :
#10
b10111100 :
#11
b10111101 :
#12
b10111110 :
#13
b10111111 :
#14
b11000000 :
#15
b11000001 :
#16
b11000010 :
#17
b11000011 :
#18
b11000100 :
#19
b11000101 :
#20
b11000110 :
#21
b11000111 :
#22
b11001000 :
#23
b11001001 :
#24
b11001010 :
#25
b11001011 :
#26
b11001100 :
#27
b11001101 :
#28
b11001110 :
#29
b11001111 :
#30
b11010000 :
#31
b11010001 :
#32
b11010010 :
#33
b11010011 :
#34
b11010100 :
#35
b11010101 :
#36
b11010110 :
#37
b11010111 :
#38
b11011000 :
#39
b11011001 :
#40
b11011010 :
#41
b11011011 :
#42
b11011100 :
#43
b11011101 :
#44
b11011110 :
#45
b11011111 :
#46
b11100000 :
#47
b11100001 :
#48
b11100010 :
#49
b11100011 :
#50
b11100100 :
#51
b11100101 :
#52
b11100110 :
#53
b11100111 :
#54
b11101000 :
#55
b11101001 :
#56
b11101010 :
#57
b11101011 :
#58
b11101100 :
#59
b11101101 :
#60
b11101110 :
#61
b11101111 :
#62
b11110000 :
#63
b11110001 :
#64
b11110010 :
#65
b11110011 :
#66
b11110100 :
#67
b11110101 :
#68
b11110110 :
#69
b11110111 :
#70
b11111000 :
#71
b11111001 :
#72
b11111010 :
#73
b11111011 :
#74
b11111100 :
#75
b11111101 :
#76
b11111110 :
#77
b11111111 :
#78
b100000000 :
#79
b100000001 :
#80
b100000010 :
#81
b100000011 :
#82
b100000100 :
#83
b100000101 :
#84
b100000110 :
#85
b100000111 :
#86
b100001000 :
#87
b100001001 :
#88
b100001010 :
#89
b100001011 :
#90
b100001100 :
#91
b100001101 :
#92
b100001110 :
#93
b100001111 :
#94
b100010000 :
#95
b100010001 :
#96
b100010010 :
#97
b100010011 :
#98
b100010100 :
#99
b100010101 :
#100
b100010110 :
#101
b100010111 :
#102
b100011000 :
#103
b100011001 :
#104
b100011010 :
#105
b100011011 :
#106
b100011100 :
#107
b100011101 :
#108
b100011110 :
#109
b100011111 :
#110
b100100000 :
#111
b100100001 :
#112
b100100010 :
#113
b100100011 :
#114
b100100100 :
#115
b100100101 :
#116
b100100110 :
#117
b100100111 :
#118
b100101000 :
#119
b100101001 :
#120
b100101010 :
#121
b100101011 :
#122
b100101100 :
#123
b100101101 :
#124
b100101110 :
#125
b100101111 :
#126
b100110000 :
#127
b100110001 :
#128
b100110010 :
#129
b100110011 :
#130
b100110100 :
#131
b100110101 :
#132
b100110110 :
#133
b100110111 :
#134
b100111000 :
#135
b100111001 :
#136
b100111010 :
#137
b100111011 :
#138
b100111100 :
#139
b100111101 :
#140
b100111110 :
#141
b100111111 :
#142
b101000000 :
#143
b1 "
b1 *
b1 2
b101000001 :
#144
b10 "
b10 *
b10 2
b101000010 :
#145
b11 "
b11 *
b11 2
b101000011 :
#146
b100 "
b100 *
b100 2
b101000100 :
#147
b101 "
b101 *
b101 2
b101000101 :
#148
b110 "
b110 *
b110 2
b101000110 :
#149
b111 "
b111 *
b111 2
b101000111 :
#150
b1000 "
b1000 *
b1000 2
b101001000 :
#151
b1001 "
b1001 *
b1001 2
b101001001 :
#152
b1010 "
b1010 *
b1010 2
b101001010 :
#153
b1011 "
b1011 *
b1011 2
b101001011 :
#154
b1100 "
b1100 *
b1100 2
b101001100 :
#155
b1101 "
b1101 *
b1101 2
b101001101 :
#156
b1110 "
b1110 *
b1110 2
b101001110 :
#157
b1111 "
b1111 *
b1111 2
b101001111 :
#158
b10000 "
b10000 *
b10000 2
b101010000 :
#159
b10001 "
b10001 *
b10001 2
b101010001 :
#160
b10010 "
b10010 *
b10010 2
b101010010 :
#161
b10011 "
b10011 *
b10011 2
b101010011 :
#162
b10100 "
b10100 *
b10100 2
b101010100 :
#163
b10101 "
b10101 *
b10101 2
b101010101 :
#164
b10110 "
b10110 *
b10110 2
b101010110 :
#165
b10111 "
b10111 *
b10111 2
b101010111 :
#166
b11000 "
b11000 *
b11000 2
b101011000 :
#167
b11001 "
b11001 *
b11001 2
b101011001 :
#168
b11010 "
b11010 *
b11010 2
b101011010 :
#169
b11011 "
b11011 *
b11011 2
b101011011 :
#170
b11100 "
b11100 *
b11100 2
b101011100 :
#171
b11101 "
b11101 *
b11101 2
b101011101 :
#172
b11110 "
b11110 *
b11110 2
b101011110 :
#173
b11111 "
b11111 *
b11111 2
b101011111 :
#174
b100000 "
b100000 *
b100000 2
b101100000 :
#175
b100001 "
b100001 *
b100001 2
b101100001 :
#176
b100010 "
b100010 *
b100010 2
b101100010 :
#177
b100011 "
b100011 *
b100011 2
b101100011 :
#178
b100100 "
b100100 *
b100100 2
b101100100 :
#179
b100101 "
b100101 *
b100101 2
b101100101 :
#180
b100110 "
b100110 *
b100110 2
b101100110 :
#181
b100111 "
b100111 *
b100111 2
b101100111 :
#182
b101000 "
b101000 *
b101000 2
b101101000 :
#183
b101001 "
b101001 *
b101001 2
b101101001 :
#184
b101010 "
b101010 *
b101010 2
b101101010 :
#185
b101011 "
b101011 *
b101011 2
b101101011 :
#186
b101100 "
b101100 *
b101100 2
b101101100 :
#187
b101101 "
b101101 *
b101101 2
b101101101 :
#188
b101110 "
b101110 *
b101110 2
b101101110 :
#189
b101111 "
b101111 *
b101111 2
b101101111 :
#190
b110000 "
b110000 *
b110000 2
b101110000 :
#191
b110001 "
b110001 *
b110001 2
b101110001 :
#192
b110010 "
b110010 *
b110010 2
b101110010 :
#193
b110011 "
b110011 *
b110011 2
b101110011 :
#194
b110100 "
b110100 *
b110100 2
b101110100 :
#195
b110101 "
b110101 *
b110101 2
b101110101 :
#196
b110110 "
b110110 *
b110110 2
b101110110 :
#197
b110111 "
b110111 *
b110111 2
b101110111 :
#198
b111000 "
b111000 *
b111000 2
b101111000 :
#199
b111001 "
b111001 *
b111001 2
b101111001 :
#200
b111010 "
b111010 *
b111010 2
b101111010 :
#201
b111011 "
b111011 *
b111011 2
b101111011 :
#202
b111100 "
b111100 *
b111100 2
b101111100 :
#203
b111101 "
b111101 *
b111101 2
b101111101 :
#204
b111110 "
b111110 *
b111110 2
b101111110 :
#205
b111111 "
b111111 *
b111111 2
b101111111 :
#206
b1000000 "
b1000000 *
b1000000 2
b110000000 :
#207
b1000001 "
b1000001 *
b1000001 2
b110000001 :
#208
b1000010 "
b1000010 *
b1000010 2
b110000010 :
#209
b1000011 "
b1000011 *
b1000011 2
b110000011 :
#210
b1000100 "
b1000100 *
b1000100 2
b110000100 :
#211
b1000101 "
b1000101 *
b1000101 2
b110000101 :
#212
b1000110 "
b1000110 *
b1000110 2
b110000110 :
#213
b1000111 "
b1000111 *
b1000111 2
b110000111 :
#214
b1001000 "
b1001000 *
b1001000 2
b110001000 :
#215
b1001001 "
b1001001 *
b1001001 2
b110001001 :
#216
b1001010 "
b1001010 *
b1001010 2
b110001010 :
#217
b1001011 "
b1001011 *
b1001011 2
b110001011 :
#218
b1001100 "
b1001100 *
b1001100 2
b110001100 :
#219
b1001101 "
b1001101 *
b1001101 2
b110001101 :
#220
b1001110 "
b1001110 *
b1001110 2
b110001110 :
#221
b1001111 "
b1001111 *
b1001111 2
b110001111 :
#222
b1010000 "
b1010000 *
b1010000 2
b110010000 :
#223
b1010001 "
b1010001 *
b1010001 2
b110010001 :
#224
b1010010 "
b1010010 *
b1010010 2
b110010010 :
#225
b1010011 "
b1010011 *
b1010011 2
b110010011 :
#226
b1010100 "
b1010100 *
b1010100 2
b110010100 :
#227
b1010101 "
b1010101 *
b1010101 2
b110010101 :
#228
b1010110 "
b1010110 *
b1010110 2
b110010110 :
#229
b1010111 "
b1010111 *
b1010111 2
b110010111 :
#230
b1011000 "
b1011000 *
b1011000 2
b110011000 :
#231
b1011001 "
b1011001 *
b1011001 2
b110011001 :
#232
b1011010 "
b1011010 *
b1011010 2
b110011010 :
#233
b1011011 "
b1011011 *
b1011011 2
b110011011 :
#234
b1011100 "
b1011100 *
b1011100 2
b110011100 :
#235
b1011101 "
b1011101 *
b1011101 2
b110011101 :
#236
b1011110 "
b1011110 *
b1011110 2
b110011110 :
#237
b1011111 "
b1011111 *
b1011111 2
b110011111 :
#238
b1100000 "
b1100000 *
b1100000 2
b110100000 :
#239
b1100001 "
b1100001 *
b1100001 2
b110100001 :
#240
b1100010 "
b1100010 *
b1100010 2
b110100010 :
#241
b1100011 "
b1100011 *
b1100011 2
b110100011 :
#242
b1100100 "
b1100100 *
b1100100 2
b110100100 :
#243
b1100101 "
b1100101 *
b1100101 2
b110100101 :
#244
b1100110 "
b1100110 *
b1100110 2
b110100110 :
#245
b1100111 "
b1100111 *
b1100111 2
b110100111 :
#246
b1101000 "
b1101000 *
b1101000 2
b110101000 :
#247
b1101001 "
b1101001 *
b1101001 2
b110101001 :
#248
b1101010 "
b1101010 *
b1101010 2
b110101010 :
#249
b1101011 "
b1101011 *
b1101011 2
b110101011 :
#250
b1101100 "
b1101100 *
b1101100 2
b110101100 :
#251
b1101101 "
b1101101 *
b1101101 2
b110101101 :
#252
b1101110 "
b1101110 *
b1101110 2
b110101110 :
#253
b1101111 "
b1101111 *
b1101111 2
b110101111 :
#254
b1110000 "
b1110000 *
b1110000 2
b110110000 :
#255
b1110001 "
b1110001 *
b1110001 2
b110110001 :
#256
b1110010 "
b1110010 *
b1110010 2
b110110010 :
#257
b1110011 "
b1110011 *
b1110011 2
b110110011 :
#258
b1110100 "
b1110100 *
b1110100 2
b110110100 :
#259
b1110101 "
b1110101 *
b1110101 2
b110110101 :
#260
b1110110 "
b1110110 *
b1110110 2
b110110110 :
#261
b1110111 "
b1110111 *
b1110111 2
b110110111 :
#262
b1111000 "
b1111000 *
b1111000 2
b110111000 :
#263
b1111001 "
b1111001 *
b1111001 2
b110111001 :
#264
b1111010 "
b1111010 *
b1111010 2
b110111010 :
#265
b1111011 "
b1111011 *
b1111011 2
b110111011 :
#266
b1111100 "
b1111100 *
b1111100 2
b110111100 :
#267
b1111101 "
b1111101 *
b1111101 2
b110111101 :
#268
b1111110 "
b1111110 *
b1111110 2
b110111110 :
#269
b1111111 "
b1111111 *
b1111111 2
b110111111 :
#270
b10000000 "
b10000000 *
b10000000 2
b111000000 :
#271
b10000001 "
b10000001 *
b10000001 2
b111000001 :
#272
b10000010 "
b10000010 *
b10000010 2
b111000010 :
#273
b10000011 "
b10000011 *
b10000011 2
b111000011 :
#274
b10000100 "
b10000100 *
b10000100 2
b111000100 :
#275
b10000101 "
b10000101 *
b10000101 2
b111000101 :
#276
b10000110 "
b10000110 *
b10000110 2
b111000110 :
#277
b10000111 "
b10000111 *
b10000111 2
b111000111 :
#278
b10001000 "
b10001000 *
b10001000 2
b111001000 :
#279
b10001001 "
b10001001 *
b10001001 2
b111001001 :
#280
b10001010 "
b10001010 *
b10001010 2
b111001010 :
#281
b10001011 "
b10001011 *
b10001011 2
b111001011 :
#282
b10001100 "
b10001100 *
b10001100 2
b111001100 :
#283
b10001101 "
b10001101 *
b10001101 2
b111001101 :
#284
b10001110 "
b10001110 *
b10001110 2
b111001110 :
#285
b10001111 "
b10001111 *
b10001111 2
b111001111 :
#286
b10010000 "
b10010000 *
b10010000 2
b111010000 :
#287
b10010001 "
b10010001 *
b10010001 2
b111010001 :
#288
b10010010 "
b10010010 *
b10010010 2
b111010010 :
#289
b10010011 "
b10010011 *
b10010011 2
b111010011 :
#290
b10010100 "
b10010100 *
b10010100 2
b111010100 :
#291
b10010101 "
b10010101 *
b10010101 2
b111010101 :
#292
b10010110 "
b10010110 *
b10010110 2
b111010110 :
#293
b10010111 "
b10010111 *
b10010111 2
b111010111 :
#294
b10011000 "
b10011000 *
b10011000 2
b111011000 :
#295
b10011001 "
b10011001 *
b10011001 2
b111011001 :
#296
b10011010 "
b10011010 *
b10011010 2
b111011010 :
#297
b10011011 "
b10011011 *
b10011011 2
b111011011 :
#298
b10011100 "
b10011100 *
b10011100 2
b111011100 :
#299
b10011101 "
b10011101 *
b10011101 2
b111011101 :
#300
b10011110 "
b10011110 *
b10011110 2
b111011110 :
#301
b10011111 "
b10011111 *
b10011111 2
b111011111 :
#302
b10100000 "
b10100000 *
b10100000 2
b111100000 :
#303
b10100001 "
b10100001 *
b10100001 2
b111100001 :
#304
b10100010 "
b10100010 *
b10100010 2
b111100010 :
#305
b10100011 "
b10100011 *
b10100011 2
b111100011 :
#306
b10100100 "
b10100100 *
b10100100 2
b111100100 :
#307
b10100101 "
b10100101 *
b10100101 2
b111100101 :
#308
b10100110 "
b10100110 *
b10100110 2
b111100110 :
#309
b10100111 "
b10100111 *
b10100111 2
b111100111 :
#310
b10101000 "
b10101000 *
b10101000 2
b111101000 :
#311
b10101001 "
b10101001 *
b10101001 2
b111101001 :
#312
b10101010 "
b10101010 *
b10101010 2
b111101010 :
#313
b10101011 "
b10101011 *
b10101011 2
b111101011 :
#314
b10101100 "
b10101100 *
b10101100 2
b111101100 :
#315
b10101101 "
b10101101 *
b10101101 2
b111101101 :
#316
b10101110 "
b10101110 *
b10101110 2
b111101110 :
#317
b10101111 "
b10101111 *
b10101111 2
b111101111 :
#318
b10110000 "
b10110000 *
b10110000 2
b111110000 :
#319
b10110001 "
b10110001 *
b10110001 2
b111110001 :
#320
b10110010 "
b10110010 *
b10110010 2
b111110010 :
#321
b10110011 "
b10110011 *
b10110011 2
b111110011 :
#322
b10110100 "
b10110100 *
b10110100 2
b111110100 :
#323
b10110101 "
b10110101 *
b10110101 2
b111110101 :
#324
b10110110 "
b10110110 *
b10110110 2
b111110110 :
#325
b10110111 "
b10110111 *
b10110111 2
b111110111 :
#326
b10111000 "
b10111000 *
b10111000 2
b111111000 :
#327
b10111001 "
b10111001 *
b10111001 2
b111111001 :
#328
b10111010 "
b10111010 *
b10111010 2
b111111010 :
#329
b10111011 "
b10111011 *
b10111011 2
b111111011 :
#330
b10111100 "
b10111100 *
b10111100 2
b111111100 :
#331
b10111101 "
b10111101 *
b10111101 2
b111111101 :
#332
b10111110 "
b10111110 *
b10111110 2
b111111110 :
#333
b10111111 "
b10111111 *
b10111111 2
b111111111 :
#334
b11000000 "
b11000000 *
b11000000 2
b1000000000 :
#335
b11000001 "
b11000001 *
b11000001 2
b1000000001 :
#336
b11000010 "
b11000010 *
b11000010 2
b1000000010 :
#337
b11000011 "
b11000011 *
b11000011 2
b1000000011 :
#338
b11000100 "
b11000100 *
b11000100 2
b1000000100 :
#339
b11000101 "
b11000101 *
b11000101 2
b1000000101 :
#340
b11000110 "
b11000110 *
b11000110 2
b1000000110 :
#341
b11000111 "
b11000111 *
b11000111 2
b1000000111 :
#342
b11001000 "
b11001000 *
b11001000 2
b1000001000 :
#343
b11001001 "
b11001001 *
b11001001 2
b1000001001 :
#344
b11001010 "
b11001010 *
b11001010 2
b1000001010 :
#345
b11001011 "
b11001011 *
b11001011 2
b1000001011 :
#346
b11001100 "
b11001100 *
b11001100 2
b1000001100 :
#347
b11001101 "
b11001101 *
b11001101 2
b1000001101 :
#348
b11001110 "
b11001110 *
b11001110 2
b1000001110 :
#349
b11001111 "
b11001111 *
b11001111 2
b1000001111 :
#350
b11010000 "
b11010000 *
b11010000 2
b1000010000 :
#351
b11010001 "
b11010001 *
b11010001 2
b1000010001 :
#352
b11010010 "
b11010010 *
b11010010 2
b1000010010 :
#353
b11010011 "
b11010011 *
b11010011 2
b1000010011 :
#354
b11010100 "
b11010100 *
b11010100 2
b1000010100 :
#355
b11010101 "
b11010101 *
b11010101 2
b1000010101 :
#356
b11010110 "
b11010110 *
b11010110 2
b1000010110 :
#357
b11010111 "
b11010111 *
b11010111 2
b1000010111 :
#358
b11011000 "
b11011000 *
b11011000 2
b1000011000 :
#359
b11011001 "
b11011001 *
b11011001 2
b1000011001 :
#360
b11011010 "
b11011010 *
b11011010 2
b1000011010 :
#361
b11011011 "
b11011011 *
b11011011 2
b1000011011 :
#362
b11011100 "
b11011100 *
b11011100 2
b1000011100 :
#363
b11011101 "
b11011101 *
b11011101 2
b1000011101 :
#364
b11011110 "
b11011110 *
b11011110 2
b1000011110 :
#365
b11011111 "
b11011111 *
b11011111 2
b1000011111 :
#366
b11100000 "
b11100000 *
b11100000 2
b1000100000 :
#367
b11100001 "
b11100001 *
b11100001 2
b1000100001 :
#368
b11100010 "
b11100010 *
b11100010 2
b1000100010 :
#369
b11100011 "
b11100011 *
b11100011 2
b1000100011 :
#370
b11100100 "
b11100100 *
b11100100 2
b1000100100 :
#371
b11100101 "
b11100101 *
b11100101 2
b1000100101 :
#372
b11100110 "
b11100110 *
b11100110 2
b1000100110 :
#373
b11100111 "
b11100111 *
b11100111 2
b1000100111 :
#374
b11101000 "
b11101000 *
b11101000 2
b1000101000 :
#375
b11101001 "
b11101001 *
b11101001 2
b1000101001 :
#376
b11101010 "
b11101010 *
b11101010 2
b1000101010 :
#377
b11101011 "
b11101011 *
b11101011 2
b1000101011 :
#378
b11101100 "
b11101100 *
b11101100 2
b1000101100 :
#379
b11101101 "
b11101101 *
b11101101 2
b1000101101 :
#380
b11101110 "
b11101110 *
b11101110 2
b1000101110 :
#381
b11101111 "
b11101111 *
b11101111 2
b1000101111 :
#382
b11110000 "
b11110000 *
b11110000 2
b1000110000 :
#383
b11110001 "
b11110001 *
b11110001 2
b1000110001 :
#384
b11110010 "
b11110010 *
b11110010 2
b1000110010 :
#385
b11110011 "
b11110011 *
b11110011 2
b1000110011 :
#386
b11110100 "
b11110100 *
b11110100 2
b1000110100 :
#387
b11110101 "
b11110101 *
b11110101 2
b1000110101 :
#388
b11110110 "
b11110110 *
b11110110 2
b1000110110 :
#389
b11110111 "
b11110111 *
b11110111 2
b1000110111 :
#390
b11111000 "
b11111000 *
b11111000 2
b1000111000 :
#391
b11111001 "
b11111001 *
b11111001 2
b1000111001 :
#392
b11111010 "
b11111010 *
b11111010 2
b1000111010 :
#393
b11111011 "
b11111011 *
b11111011 2
b1000111011 :
#394
b11111100 "
b11111100 *
b11111100 2
b1000111100 :
#395
b11111101 "
b11111101 *
b11111101 2
b1000111101 :
#396
b11111110 "
b11111110 *
b11111110 2
b1000111110 :
#397
b11111111 "
b11111111 *
b11111111 2
b1000111111 :
#398
b0 "
b0 *
b0 2
b1001000000 :
#399
b1 "
b1 *
b1 2
b1001000001 :
#400
b10 "
b10 *
b10 2
b1001000010 :
#401
b11 "
b11 *
b11 2
b1001000011 :
#402
b100 "
b100 *
b100 2
b1001000100 :
#403
b101 "
b101 *
b101 2
b1001000101 :
#404
b110 "
b110 *
b110 2
b1001000110 :
#405
b111 "
b111 *
b111 2
b1001000111 :
#406
b1000 "
b1000 *
b1000 2
b1001001000 :
#407
b1001 "
b1001 *
b1001 2
b1001001001 :
#408
b1010 "
b1010 *
b1010 2
b1001001010 :
#409
b1011 "
b1011 *
b1011 2
b1001001011 :
#410
b1100 "
b1100 *
b1100 2
b1001001100 :
#411
b1101 "
b1101 *
b1101 2
b1001001101 :
#412
b1110 "
b1110 *
b1110 2
b1001001110 :
#413
b1111 "
b1111 *
b1111 2
b1001001111 :
#414
b10000 "
b10000 *
b10000 2
b1001010000 :
#415
b10001 "
b10001 *
b10001 2
b1001010001 :
#416
b10010 "
b10010 *
b10010 2
b1001010010 :
#417
b10011 "
b10011 *
b10011 2
b1001010011 :
#418
b10100 "
b10100 *
b10100 2
b1001010100 :
#419
b10101 "
b10101 *
b10101 2
b1001010101 :
#420
b10110 "
b10110 *
b10110 2
b1001010110 :
#421
b10111 "
b10111 *
b10111 2
b1001010111 :
#422
b11000 "
b11000 *
b11000 2
b1001011000 :
#423
b11001 "
b11001 *
b11001 2
b1001011001 :
#424
b11010 "
b11010 *
b11010 2
b1001011010 :
#425
b11011 "
b11011 *
b11011 2
b1001011011 :
#426
b11100 "
b11100 *
b11100 2
b1001011100 :
#427
b11101 "
b11101 *
b11101 2
b1001011101 :
#428
b11110 "
b11110 *
b11110 2
b1001011110 :
#429
b11111 "
b11111 *
b11111 2
b1001011111 :
#430
b100000 "
b100000 *
b100000 2
b1001100000 :
#431
b100001 "
b100001 *
b100001 2
b1001100001 :
#432
b100010 "
b100010 *
b100010 2
b1001100010 :
#433
b100011 "
b100011 *
b100011 2
b1001100011 :
#434
b100100 "
b100100 *
b100100 2
b1001100100 :
#435
b100101 "
b100101 *
b100101 2
b1001100101 :
#436
b100110 "
b100110 *
b100110 2
b1001100110 :
#437
b100111 "
b100111 *
b100111 2
b1001100111 :
#438
b101000 "
b101000 *
b101000 2
b1001101000 :
#439
b101001 "
b101001 *
b101001 2
b1001101001 :
#440
b101010 "
b101010 *
b101010 2
b1001101010 :
#441
b101011 "
b101011 *
b101011 2
b1001101011 :
#442
b101100 "
b101100 *
b101100 2
b1001101100 :
#443
b101101 "
b101101 *
b101101 2
b1001101101 :
#444
b101110 "
b101110 *
b101110 2
b1001101110 :
#445
b101111 "
b101111 *
b101111 2
b1001101111 :
#446
b110000 "
b110000 *
b110000 2
b1001110000 :
#447
b110001 "
b110001 *
b110001 2
b1001110001 :
#448
b110010 "
b110010 *
b110010 2
b1001110010 :
#449
b110011 "
b110011 *
b110011 2
b1001110011 :
#450
b110100 "
b110100 *
b110100 2
b1001110100 :
#451
b110101 "
b110101 *
b110101 2
b1001110101 :
#452
b110110 "
b110110 *
b110110 2
b1001110110 :
#453
b110111 "
b110111 *
b110111 2
b1001110111 :
#454
b111000 "
b111000 *
b111000 2
b1001111000 :
#455
b111001 "
b111001 *
b111001 2
b1001111001 :
#456
b111010 "
b111010 *
b111010 2
b1001111010 :
#457
b111011 "
b111011 *
b111011 2
b1001111011 :
#458
b111100 "
b111100 *
b111100 2
b1001111100 :
#459
b111101 "
b111101 *
b111101 2
b1001111101 :
#460
b111110 "
b111110 *
b111110 2
b1001111110 :
#461
b111111 "
b111111 *
b111111 2
b1001111111 :
#462
b1000000 "
b1000000 *
b1000000 2
b1010000000 :
#463
b1000001 "
b1000001 *
b1000001 2
b1010000001 :
#464
b1000010 "
b1000010 *
b1000010 2
b1010000010 :
#465
b1000011 "
b1000011 *
b1000011 2
b1010000011 :
#466
b1000100 "
b1000100 *
b1000100 2
b1010000100 :
#467
b1000101 "
b1000101 *
b1000101 2
b1010000101 :
#468
b1000110 "
b1000110 *
b1000110 2
b1010000110 :
#469
b1000111 "
b1000111 *
b1000111 2
b1010000111 :
#470
b1001000 "
b1001000 *
b1001000 2
b1010001000 :
#471
b1001001 "
b1001001 *
b1001001 2
b1010001001 :
#472
b1001010 "
b1001010 *
b1001010 2
b1010001010 :
#473
b1001011 "
b1001011 *
b1001011 2
b1010001011 :
#474
b1001100 "
b1001100 *
b1001100 2
b1010001100 :
#475
b1001101 "
b1001101 *
b1001101 2
b1010001101 :
#476
b1001110 "
b1001110 *
b1001110 2
b1010001110 :
#477
b1001111 "
b1001111 *
b1001111 2
b1010001111 :
#478
b1010000 "
b1010000 *
b1010000 2
b1010010000 :
#479
b1010001 "
b1010001 *
b1010001 2
b1010010001 :
#480
b1010010 "
b1010010 *
b1010010 2
b1010010010 :
#481
b1010011 "
b1010011 *
b1010011 2
b1010010011 :
#482
b1010100 "
b1010100 *
b1010100 2
b1010010100 :
#483
b1010101 "
b1010101 *
b1010101 2
b1010010101 :
#484
b1010110 "
b1010110 *
b1010110 2
b1010010110 :
#485
b1010111 "
b1010111 *
b1010111 2
b1010010111 :
#486
b1011000 "
b1011000 *
b1011000 2
b1010011000 :
#487
b1011001 "
b1011001 *
b1011001 2
b1010011001 :
#488
b1011010 "
b1011010 *
b1011010 2
b1010011010 :
#489
b1011011 "
b1011011 *
b1011011 2
b1010011011 :
#490
b1011100 "
b1011100 *
b1011100 2
b1010011100 :
#491
b1011101 "
b1011101 *
b1011101 2
b1010011101 :
#492
b1011110 "
b1011110 *
b1011110 2
b1010011110 :
#493
b1011111 "
b1011111 *
b1011111 2
b1010011111 :
#494
b1100000 "
b1100000 *
b1100000 2
b1010100000 :
#495
b1100001 "
b1100001 *
b1100001 2
b1010100001 :
#496
b1100010 "
b1100010 *
b1100010 2
b1010100010 :
#497
b1100011 "
b1100011 *
b1100011 2
b1010100011 :
#498
b1100100 "
b1100100 *
b1100100 2
b1010100100 :
#499
b1100101 "
b1100101 *
b1100101 2
b1010100101 :
#500
b1100110 "
b1100110 *
b1100110 2
b1010100110 :
#501
b1100111 "
b1100111 *
b1100111 2
b1010100111 :
#502
b1101000 "
b1101000 *
b1101000 2
b1010101000 :
#503
b1101001 "
b1101001 *
b1101001 2
b1010101001 :
#504
b1101010 "
b1101010 *
b1101010 2
b1010101010 :
#505
b1101011 "
b1101011 *
b1101011 2
b1010101011 :
#506
b1101100 "
b1101100 *
b1101100 2
b1010101100 :
#507
b1101101 "
b1101101 *
b1101101 2
b1010101101 :
#508
b1101110 "
b1101110 *
b1101110 2
b1010101110 :
#509
b1101111 "
b1101111 *
b1101111 2
b1010101111 :
#510
b1110000 "
b1110000 *
b1110000 2
b1010110000 :
#511
b1110001 "
b1110001 *
b1110001 2
b1010110001 :
#512
b1110010 "
b1110010 *
b1110010 2
b1010110010 :
1Q
1R
#513
b1110011 "
b1110011 *
b1110011 2
b1010110011 :
#514
b1110100 "
b1110100 *
b1110100 2
b1010110100 :
#515
b1110101 "
b1110101 *
b1110101 2
b1010110101 :
#516
b1110110 "
b1110110 *
b1110110 2
b1010110110 :
#517
b1110111 "
b1110111 *
b1110111 2
b1010110111 :
#518
b1111000 "
b1111000 *
b1111000 2
b1010111000 :
#519
b1111001 "
b1111001 *
b1111001 2
b1010111001 :
#520
b1111010 "
b1111010 *
b1111010 2
b1010111010 :
#521
b1111011 "
b1111011 *
b1111011 2
b1010111011 :
#522
b1111100 "
b1111100 *
b1111100 2
b1010111100 :
#523
b1111101 "
b1111101 *
b1111101 2
b1010111101 :
#524
b1111110 "
b1111110 *
b1111110 2
b1010111110 :
#525
b1111111 "
b1111111 *
b1111111 2
b1010111111 :
#526
b10000000 "
b10000000 *
b10000000 2
b1011000000 :
#527
b10000001 "
b10000001 *
b10000001 2
b1011000001 :
#528
b10000010 "
b10000010 *
b10000010 2
b1011000010 :
#529
b10000011 "
b10000011 *
b10000011 2
b1011000011 :
#530
b10000100 "
b10000100 *
b10000100 2
b1011000100 :
#531
b10000101 "
b10000101 *
b10000101 2
b1011000101 :
#532
b10000110 "
b10000110 *
b10000110 2
b1011000110 :
#533
b10000111 "
b10000111 *
b10000111 2
b1011000111 :
0Q
#534
b10001000 "
b10001000 *
b10001000 2
b1011001000 :
#535
b10001001 "
b10001001 *
b10001001 2
b1011001001 :
#536
b10001010 "
b10001010 *
b10001010 2
b1011001010 :
#537
b10001011 "
b10001011 *
b10001011 2
b1011001011 :
#538
b10001100 "
b10001100 *
b10001100 2
b1011001100 :
#539
b10001101 "
b10001101 *
b10001101 2
b1011001101 :
#540
b10001110 "
b10001110 *
b10001110 2
b1011001110 :
#541
b10001111 "
b10001111 *
b10001111 2
b1011001111 :
#542
b10010000 "
b10010000 *
b10010000 2
b1011010000 :
#543
b10010001 "
b10010001 *
b10010001 2
b1011010001 :
#544
b10010010 "
b10010010 *
b10010010 2
b1011010010 :
#545
b10010011 "
b10010011 *
b10010011 2
b1011010011 :
#546
b10010100 "
b10010100 *
b10010100 2
b1011010100 :
#547
b10010101 "
b10010101 *
b10010101 2
b1011010101 :
#548
b10010110 "
b10010110 *
b10010110 2
b1011010110 :
#549
b10010111 "
b10010111 *
b10010111 2
b1011010111 :
#550
b10011000 "
b10011000 *
b10011000 2
b1011011000 :
#551
b10011001 "
b10011001 *
b10011001 2
b1011011001 :
#552
b10011010 "
b10011010 *
b10011010 2
b1011011010 :
#553
b10011011 "
b10011011 *
b10011011 2
b1011011011 :
#554
b10011100 "
b10011100 *
b10011100 2
b1011011100 :
#555
b10011101 "
b10011101 *
b10011101 2
b1011011101 :
#556
b10011110 "
b10011110 *
b10011110 2
b1011011110 :
#557
b10011111 "
b10011111 *
b10011111 2
b1011011111 :
#558
b10100000 "
b10100000 *
b10100000 2
b1011100000 :
#559
b10100001 "
b10100001 *
b10100001 2
b1011100001 :
#560
b10100010 "
b10100010 *
b10100010 2
b1011100010 :
#561
b10100011 "
b10100011 *
b10100011 2
b1011100011 :
#562
b10100100 "
b10100100 *
b10100100 2
b1011100100 :
#563
b10100101 "
b10100101 *
b10100101 2
b1011100101 :
#564
b10100110 "
b10100110 *
b10100110 2
b1011100110 :
#565
b10100111 "
b10100111 *
b10100111 2
b1011100111 :
#566
b10101000 "
b10101000 *
b10101000 2
b1011101000 :
#567
b10101001 "
b10101001 *
b10101001 2
b1011101001 :
#568
b10101010 "
b10101010 *
b10101010 2
b1011101010 :
#569
b10101011 "
b10101011 *
b10101011 2
b1011101011 :
#570
b10101100 "
b10101100 *
b10101100 2
b1011101100 :
